{
  "$schema": "https://biomejs.dev/schemas/1.5.3/schema.json",
  "organizeImports": {
    "enabled": true,
    "ignore": ["kirby", "media", "assets/js/index.min.js", "site/plugins"]
  },
  "linter": {
    "enabled": true,
    "rules": {
      "recommended": true
    },
    "ignore": ["kirby", "media", "assets/js/index.min.js", "site/plugins"]
  },
  "formatter": {
    "indentStyle": "space",
    "ignore": [
      "kirby",
      "stack.indigostack",
      "media",
      "assets/js/index.min.js",
      "site/plugins"
    ]
  },
  "javascript": {
    "formatter": {
      "arrowParentheses": "asNeeded",
      "semicolons": "asNeeded",
      "quoteStyle": "single"
    }
  }
}
