<svg xmlns="http://www.w3.org/2000/svg" id="Calque_1" viewBox="0 0 545.84 94.07">
  <defs>
    <style>
      .cls-2{fill:#d8d860}
    </style>
  </defs>
  <path d="M302.39 93.56c-3.31 0-6.57-.22-9.79-.65-10.36-1.41-19.2-5.13-25.57-10.75a36.66 36.66 0 0 1-11.06-17.86c-6 .93-11.73 1.24-17.15.93-3.57-.2-8.13-.77-11.78-3.31-3.73-2.6-6.8-7.13-5.95-11.67l3.87-.03c.03 3.31 1.7 6.53 4.38 8.4 2.81 1.96 6.49 2.41 9.72 2.6 5.06.29 10.45 0 16.09-.85-1.97-13.23 3.8-27.86 14.37-36.03 4.23-3.27 12.35-8.24 19.34-4.9 5.5 2.64 7.29 9.06 7.14 13.76-.24 7.57-4.55 15.28-11.53 20.64-5.38 4.12-12.2 7.02-21.47 9.13-1.02.23-2.03.44-3.04.64a32.6 32.6 0 0 0 9.74 15.54c5.77 5.1 13.88 8.48 23.45 9.78 14.35 1.96 29.9-.74 44.95-7.8l1.71 3.64c-12.41 5.82-25.16 8.8-37.41 8.8Zm-18.56-71.21c-4.59 0-9.6 3.42-11.85 5.16-9.43 7.29-14.6 20.34-12.86 32.15.99-.19 1.98-.4 2.99-.63 8.69-1.97 15.02-4.64 19.92-8.4 6.04-4.63 9.76-11.19 9.96-17.57.12-3.76-1.34-8.32-4.86-10.01-1.04-.5-2.15-.71-3.29-.71Z" class="cls-2"/>
  <path d="M302.39 94.07c-3.32 0-6.64-.22-9.86-.66-10.46-1.42-19.39-5.18-25.84-10.87-5.25-4.64-9.18-10.9-11.09-17.67-5.87.88-11.52 1.17-16.82.86-3.63-.21-8.28-.78-12.04-3.4-3.44-2.4-7.12-7.02-6.16-12.17l.08-.41 4.79-.04v.5c.03 3.15 1.62 6.22 4.17 7.99 2.71 1.88 6.3 2.32 9.46 2.51 4.89.27 10.1.02 15.5-.78-1.81-13.4 4.03-27.81 14.63-36 4.32-3.34 12.64-8.41 19.86-4.95 5.72 2.75 7.57 9.38 7.43 14.23-.24 7.72-4.62 15.58-11.73 21.02-5.44 4.17-12.32 7.1-21.67 9.22-.84.19-1.68.37-2.51.54a31.83 31.83 0 0 0 9.44 14.78c5.69 5.03 13.71 8.37 23.18 9.66 14.25 1.94 29.7-.74 44.67-7.76l.46-.21 2.14 4.55-.46.21c-12.52 5.87-25.18 8.85-37.63 8.85m-46.05-30.33.12.44c1.82 6.75 5.69 13 10.91 17.61 6.29 5.56 15.04 9.24 25.3 10.63 3.18.43 6.45.65 9.72.65 12.15 0 24.51-2.87 36.74-8.54l-1.28-2.73c-15 6.94-30.47 9.59-44.78 7.63-9.67-1.31-17.87-4.74-23.71-9.9-4.75-4.2-8.17-9.66-9.89-15.78l-.15-.52.53-.11c1-.2 2.01-.41 3.03-.64 9.2-2.09 15.96-4.96 21.28-9.04 6.87-5.26 11.1-12.84 11.33-20.26.14-4.54-1.57-10.75-6.86-13.29-6.74-3.24-14.68 1.64-18.81 4.84-10.45 8.07-16.15 22.36-14.18 35.55l.07.5-.5.08c-5.64.86-11.09 1.15-16.2.86-3.3-.19-7.06-.66-9.97-2.69-2.67-1.86-4.4-5.01-4.58-8.3l-2.95.02c-.56 4.24 2.47 8.43 5.81 10.75 3.55 2.47 8.03 3.02 11.52 3.22 5.34.31 11.08 0 17.04-.92l.45-.07Zm2.35-3.47-.08-.52c-1.78-12.11 3.47-25.22 13.05-32.63 2.55-1.97 7.51-5.26 12.16-5.26 1.28 0 2.46.25 3.5.76 3.72 1.79 5.26 6.55 5.14 10.48-.2 6.52-4 13.23-10.15 17.95-4.96 3.8-11.35 6.5-20.11 8.49-1.01.23-2.01.44-3 .64l-.52.1Zm25.13-37.41c-4.51 0-9.58 3.53-11.54 5.05-9.17 7.08-14.24 19.55-12.74 31.16.81-.16 1.63-.34 2.45-.53 8.61-1.95 14.88-4.59 19.72-8.3 5.92-4.54 9.57-10.96 9.76-17.19.11-3.6-1.26-7.95-4.58-9.54-.91-.44-1.94-.66-3.07-.66Z" class="cls-2"/>
  <path d="M2.75 21.44c9.94 0 9.94-14.78 9.94-14.78h8.11v14.78h12.55v11.38H20.8v35.96s-.13 9.28 12.16 9.28l.39 13.6s-7.06.39-11.11-1.05C4.98 84.86 6.42 65.64 6.42 65.64V32.82H0V21.44zm99.23 31.38-49.95 6.41c0 19.87 18.96 19.09 18.96 19.09 15.69 0 17-13.99 17-13.99l13.34 4.32s-3.14 23.01-29.81 23.01c0 0-34.26 1.57-34.26-35.17s34.26-35.3 34.26-35.3c30.07 0 30.47 27.07 30.47 28.11v3.53Zm-49.82-3.53 35.83-4.71c0-2.48-2.75-11.37-19.35-9.94 0 0-17.39 1.18-16.48 14.64Zm116.9-2.09-14.91 5.23.13-6.01c0-12.42-10.98-11.9-10.98-11.9s-19.22-1.57-19.35 20.01v37.13h-14.91V21.44h15.95l-3.92 18.57h3.79c1.57-12.16 9.68-17.78 19.35-18.57 0 0 24.84-4.18 24.84 23.54v2.22Zm65.77 0-14.91 5.23.13-6.01c0-12.42-10.98-11.9-10.98-11.9s-19.22-1.57-19.35 20.01v37.13h-14.91V21.44h15.95l-3.92 18.57h3.79c1.57-12.16 9.68-17.78 19.35-18.57 0 0 24.84-4.18 24.84 23.54v2.22Zm141.96 21.18s-4.05 23.14-29.81 23.14c0 0-34.26 1.18-34.26-35.17s34.26-35.3 34.26-35.3c26.94 0 29.94 22.49 29.94 22.49l-13.47 4.97s-.26-14.12-16.87-14.12c0 0-19.09-1.57-19.09 21.97s19.09 21.84 19.09 21.84c15.95 0 16.87-13.99 16.87-13.99l13.34 4.18Zm38.3 23.15c-10.59 0-32.82-3.27-32.82-35.17s22.23-35.3 32.82-35.3c9.41 0 32.82 2.75 32.82 35.3s-22.62 35.17-32.82 35.17m18.17-35.17c0-20.4-12.03-21.97-18.17-21.97-6.54 0-18.18 1.57-18.18 21.97s11.9 21.97 18.18 21.97c5.88 0 18.17-1.7 18.17-21.97m21.97 8.89V0h14.64v68.38s-.65 9.42 9.41 9.42l.39 13.73s-4.18.39-8.37-1.05c-17.52-5.89-16.08-25.24-16.08-25.24Zm90.61-12.56-49.95 6.41c0 19.88 18.96 19.09 18.96 19.09 15.69 0 17-13.99 17-13.99l13.34 4.32s-3.14 23.01-29.81 23.01c0 0-34.26 1.57-34.26-35.17s34.26-35.3 34.26-35.3c30.07 0 30.47 27.07 30.47 28.11v3.53Zm-49.82-3.53 35.83-4.71c0-2.48-2.75-11.38-19.35-9.94 0 0-17.39 1.18-16.48 14.64Z" style="fill:#f0eee9"/>
</svg>
